2015-06-06 07:42:24 INFO  ActionConstructSmart:39 - Constructing of smart is complete!
2015-06-06 07:42:24 INFO  ActionConstructBussines:39 - Constructing of bussines is complete!
2015-06-06 07:42:24 INFO  ActionConstructShoes:39 - Constructing of shoes is complete!
2015-06-06 07:42:24 INFO  ActionFindTarif:48 - tarif is founded
2015-06-06 07:42:24 INFO  ActionCountClients:33 - Counting is complete
2015-06-06 07:42:24 INFO  ActionSortByLicenseFee:29 - Sorting is complete!
2015-06-19 00:50:56 INFO  TextParser:27 - Parsing of text is complete
2015-06-19 00:50:56 INFO  TextParser:27 - Parsing of text is complete
2015-06-19 00:50:57 INFO  TextParser:27 - Parsing of text is complete
2015-06-19 00:50:57 INFO  TextParser:27 - Parsing of text is complete
